A	3	O	(45.2604,-72.1847)	-->	(45.6703,-72.1713)	07h16	09h15	20h15	22h07	;
B	2	O	(45.2135,-73.1051)	-->	(45.103,-73.1514)	07h50	09h00	20h30	21h23	;
C	2	O	(45.4109,-71.6806)	-->	(45.2553,-71.767)	06h29	07h45	19h15	20h41	;
D	3	O	(45.737,-73.5215)	-->	(45.8307,-73.4247)	07h49	09h00	18h15	19h09	;
E	2	O	(45.7232,-73.1033)	-->	(45.7322,-73.1069)	06h27	07h15	14h00	14h42	;
F	3	O	(45.8931,-72.2417)	-->	(45.7887,-71.8791)	06h48	08h15	19h15	20h57	;
G	3	O	(45.5316,-74.2672)	-->	(45.4236,-74.1266)	07h13	08h15	16h00	16h57	;
H	4	O	(45.3821,-73.2942)	-->	(45.5994,-73.357)	07h24	09h00	15h45	17h07	;
I	5	O	(45.528,-73.2842)	-->	(45.5377,-73.3119)	08h42	09h30	18h00	18h48	;
J	2	O	(46.121,-73.2798)	-->	(45.9921,-73.2487)	06h36	08h00	17h00	18h17	;
K	4	O	(46.0266,-72.9862)	-->	(46.01,-72.9765)	07h30	08h30	17h00	17h38	;
L	4	O	(46.0383,-74.0846)	-->	(46.0381,-74.0514)	06h15	07h00	14h00	15h01	;
M	5	O	(45.4229,-72.8994)	-->	(45.4342,-72.8805)	07h55	08h45	17h15	17h56	;
N	2	O	(45.9987,-71.6631)	-->	(45.9053,-71.844)	07h04	08h30	19h45	21h07	;
O	3	O	(45.7716,-71.9885)	-->	(45.7551,-71.9816)	08h20	09h00	18h15	19h15	;
P	5	O	(45.2842,-72.0334)	-->	(46.1221,-72.3975)	05h07	08h45	18h45	22h18	;
Q	5	O	(45.4147,-71.6983)	-->	(45.6763,-72.26)	06h27	08h45	17h15	19h36	;
R	5	O	(45.8137,-73.8563)	-->	(45.8735,-73.779)	08h22	09h30	16h30	17h23	;
S	2	O	(46.0877,-71.8056)	-->	(46.062,-71.7147)	08h08	09h00	17h15	18h11	;
T	5	O	(45.4991,-72.5663)	-->	(45.5236,-72.8207)	08h15	09h45	19h45	20h52	;
U	2	O	(45.3547,-73.33)	-->	(45.7404,-72.8428)	06h58	09h30	15h30	18h04	;
V	2	O	(45.7677,-73.2975)	-->	(45.9841,-73.6983)	07h55	09h45	21h30	23h21	;
W	4	O	(45.9389,-72.3551)	-->	(45.4053,-72.9142)	05h15	08h15	15h00	17h33	;
X	5	O	(45.9513,-71.8683)	-->	(45.8688,-71.9565)	06h57	08h00	14h45	16h04	;
Y	3	O	(46.1981,-71.8456)	-->	(46.1032,-71.6001)	05h25	07h00	16h00	17h33	;
Z	4	O	(45.664,-72.6292)	-->	(45.5907,-72.7563)	07h09	08h15	15h00	16h14	;
